<?xml version="1.0" encoding="UTF-8"?>
<svg width="58px" height="90px" viewBox="0 0 58 90" version="1.1" xmlns="http://www.w3.org/2000/svg" xmlns:xlink="http://www.w3.org/1999/xlink">
    <!-- Generator: Sketch 48.2 (47327) - http://www.bohemiancoding.com/sketch -->
    <title>Shape</title>
    <desc>Created with Sketch.</desc>
    <defs></defs>
    <g id="Page-1" stroke="none" stroke-width="1" fill="none" fill-rule="evenodd">
        <g id="audio-speaker-on" fill="#FFFFFF" fill-rule="nonzero">
            <path d="M47.9,1.306 L26,17.706 L6,17.706 C2.7,17.706 0,20.406 0,23.706 L0,65.506 C0,68.807 2.7,71.506 6,71.506 L26,71.506 L47.9,87.906 C51.9,90.906 57.5,88.106 57.5,83.106 L57.5,6.106 C57.5,1.106 51.8,-1.694 47.9,1.306 Z" id="Shape"></path>
        </g>
    </g>
</svg>