<?xml version="1.0" encoding="UTF-8"?>
<svg width="116px" height="103px" viewBox="0 0 116 103" version="1.1" xmlns="http://www.w3.org/2000/svg" xmlns:xlink="http://www.w3.org/1999/xlink">
    <!-- Generator: Sketch 48.2 (47327) - http://www.bohemiancoding.com/sketch -->
    <title>audio-speaker-on</title>
    <desc>Created with Sketch.</desc>
    <defs></defs>
    <g id="Page-1" stroke="none" stroke-width="1" fill="none" fill-rule="evenodd">
        <g id="audio-speaker-on" fill="#FFFFFF" fill-rule="nonzero">
            <path d="M47.9,8.306 L26,24.706 L6,24.706 C2.7,24.706 0,27.406 0,30.706 L0,72.506 C0,75.807 2.7,78.506 6,78.506 L26,78.506 L47.9,94.906 C51.9,97.906 57.5,95.106 57.5,90.106 L57.5,13.106 C57.5,8.106 51.8,5.306 47.9,8.306 Z" id="Shape"></path>
            <path d="M77.3,18.106 C74.6,15.406 70.1,15.406 67.401,18.106 C64.701,20.806 64.701,25.306 67.401,28.006 C80.401,41.006 80.401,62.107 67.401,75.107 C64.701,77.807 64.701,82.307 67.401,85.006 C68.8,86.406 70.6,87.006 72.3,87.006 C74,87.006 75.901,86.307 77.2,84.906 C95.8,66.606 95.8,36.606 77.3,18.106 Z" id="Shape"></path>
            <path d="M85.1,2.406 C82.401,5.106 82.401,9.606 85.1,12.306 C95.6,22.806 101.401,36.706 101.401,51.606 C101.401,66.506 95.6,80.406 85.1,90.906 C82.401,93.606 82.401,98.106 85.1,100.806 C86.5,102.205 88.3,102.906 90,102.906 C91.8,102.906 93.6,102.206 94.9,100.906 C108,87.806 115.299,70.306 115.299,51.706 C115.299,33.106 108.099,15.706 94.9,2.506 C92.3,-0.294 87.9,-0.294 85.1,2.406 Z" id="Shape"></path>
        </g>
    </g>
</svg>